<?xml version="1.0" standalone="no"?>
<!DOCTYPE svg PUBLIC "-//W3C//DTD SVG 20010904//EN"
 "http://www.w3.org/TR/2001/REC-SVG-20010904/DTD/svg10.dtd">
<svg version="1.0" xmlns="http://www.w3.org/2000/svg"
 width="200.000000pt" height="200.000000pt" viewBox="0 0 200.000000 200.000000"
 preserveAspectRatio="xMidYMid meet">

<g transform="translate(0.000000,200.000000) scale(0.100000,-0.100000)"
fill="#000000" stroke="none">
<path d="M0 1000 l0 -1000 1000 0 1000 0 0 1000 0 1000 -1000 0 -1000 0 0
-1000z m432 18 c2 -46 2 -85 1 -87 -1 -2 -9 -1 -18 2 -21 9 -22 167 -1 167 11
0 15 -19 18 -82z m178 58 c0 -21 6 -25 32 -28 43 -4 60 -45 37 -86 -12 -22
-23 -28 -57 -30 l-42 -3 0 85 c0 70 3 86 15 86 9 0 15 -9 15 -24z m776 13 c10
-17 -13 -36 -27 -22 -12 12 -4 33 11 33 5 0 12 -5 16 -11z m-536 -24 c0 -10
10 -15 30 -15 25 0 31 -5 38 -32 9 -32 11 -31 26 15 10 30 33 19 42 -20 l8
-38 10 38 c5 20 15 37 23 37 16 0 16 -2 0 -65 -16 -61 -42 -72 -55 -23 -9 32
-11 31 -26 -14 -11 -34 -35 -19 -48 29 -9 31 -20 49 -31 51 -15 3 -18 -2 -15
-35 2 -24 8 -37 16 -35 6 1 12 -5 12 -14 0 -11 -8 -14 -27 -12 -25 3 -28 7
-31 48 -2 24 -9 48 -15 53 -9 7 -9 10 1 14 6 2 12 11 12 19 0 8 7 14 15 14 8
0 15 -7 15 -15z m460 0 c0 -8 7 -15 15 -15 8 0 15 -4 15 -10 0 -5 -7 -10 -16
-10 -12 0 -14 -9 -12 -37 2 -24 8 -37 16 -35 6 1 12 -5 12 -14 0 -11 -8 -14
-27 -12 -25 3 -28 7 -31 48 -2 24 -9 48 -15 53 -9 7 -9 10 1 14 6 2 12 11 12
19 0 8 7 14 15 14 8 0 15 -7 15 -15z m-920 -25 c0 -5 -4 -10 -9 -10 -5 0 -11
-12 -13 -27 -2 -22 -10 -29 -33 -34 -32 -6 -21 -16 25 -21 33 -4 40 -42 10
-58 -28 -15 -70 -5 -70 16 0 13 3 14 14 5 14 -12 46 -5 46 10 0 5 -13 9 -29 9
-33 0 -39 15 -32 83 3 37 4 37 47 37 24 0 44 -4 44 -10z m158 -2 c15 -15 16
-63 2 -89 -13 -23 -62 -26 -84 -3 -18 18 -21 56 -6 85 12 22 68 27 88 7z m240
0 c7 -7 12 -22 12 -35 0 -20 -5 -23 -36 -23 -31 0 -35 -2 -24 -15 6 -8 20 -13
30 -12 10 1 20 -2 22 -8 5 -17 -58 -17 -76 0 -18 19 -21 57 -6 86 12 22 59 26
78 7z m350 0 c7 -7 12 -22 12 -35 0 -20 -5 -23 -35 -23 -19 0 -35 -4 -35 -10
0 -10 6 -12 42 -14 10 -1 19 -5 20 -11 4 -15 -61 -18 -78 -4 -17 14 -19 80 -2
97 15 15 61 15 76 0z m110 0 c7 -7 12 -22 12 -35 0 -20 -5 -23 -36 -23 -31 0
-35 -2 -24 -15 6 -8 20 -13 30 -12 10 1 20 -2 22 -8 5 -17 -58 -17 -76 0 -18
19 -21 57 -6 86 12 22 59 26 78 7z m132 -48 c0 -47 -3 -60 -15 -60 -12 0 -15
13 -15 60 0 47 3 60 15 60 12 0 15 -13 15 -60z m122 48 c4 -7 8 -34 8 -60 0
-36 -4 -48 -15 -48 -11 0 -15 11 -15 43 0 48 -5 58 -26 50 -9 -3 -14 -21 -14
-49 0 -32 -4 -44 -15 -44 -12 0 -15 13 -15 58 l0 59 42 1 c24 1 45 -3 50 -10z
m122 -15 c-10 -50 -13 -53 -39 -53 -15 0 -24 -4 -20 -10 3 -5 19 -10 35 -10
35 0 47 -26 24 -51 -23 -25 -80 -25 -93 0 -6 10 -8 21 -5 24 3 3 6 29 6 58 -1
29 1 56 4 61 3 4 25 8 50 8 43 0 44 -1 38 -27z"/>
<path d="M623 1023 c-18 -7 -16 -60 2 -67 23 -9 43 40 24 58 -8 8 -20 12 -26
9z"/>
<path d="M314 1019 c-10 -17 13 -36 27 -22 12 12 4 33 -11 33 -5 0 -12 -5 -16
-11z"/>
<path d="M740 1020 c-19 -12 -7 -22 21 -18 19 2 20 5 8 15 -9 7 -20 9 -29 3z"/>
<path d="M1087 1024 c-13 -13 -7 -24 14 -24 11 0 19 5 17 12 -5 14 -22 21 -31
12z"/>
<path d="M1200 1020 c-19 -12 -7 -22 21 -18 19 2 20 5 8 15 -9 7 -20 9 -29 3z"/>
<path d="M1566 1023 c-12 -12 -6 -33 9 -33 8 0 15 6 15 14 0 17 -14 28 -24 19z"/>
<path d="M1556 921 c-7 -11 22 -23 35 -15 5 3 9 9 9 15 0 12 -37 12 -44 0z"/>
</g>
</svg>
